global_stall_doesnt_stall_on_flush/dump.vcd
$version Generated by VerilatedVcd $end
$date Tue May 13 09:22:13 2025
 $end
$timescale   1ns $end

 $scope module TOP $end
  $var wire  1 Y+ clk $end
  $var wire  1 a+ reset $end
  $scope module top $end
   $var wire  1 I' arbiter_choice $end
   $var wire  1 c arbiter_valid $end
   $var wire  1 Y+ clk $end
   $var wire  8 # end_address_1 [7:0] $end
   $var wire  8 C end_address_2 [7:0] $end
   $var wire  8 + end_id_1 [7:0] $end
   $var wire  8 K end_id_2 [7:0] $end
   $var wire  1 3 end_valid_1 $end
   $var wire  1 S end_valid_2 $end
   $var wire  1 Q' flush_1 $end
   $var wire  1 a' flush_2 $end
   $var wire  8 Y' flush_id_1 [7:0] $end
   $var wire  8 i' flush_id_2 [7:0] $end
   $var wire  1 a+ reset $end
   $var wire 32 q' resource_data [31:0] $end
   $var wire  8 y' resource_id [7:0] $end
   $var wire  1 +( resource_ready $end
   $var wire  1 #( resource_valid $end
   $var wire  1 ; stall_1 $end
   $var wire  1 [ stall_2 $end
   $var wire  8 w& start_address_1 [7:0] $end
   $var wire  8 1' start_address_2 [7:0] $end
   $var wire  8 !' start_id_1 [7:0] $end
   $var wire  8 9' start_id_2 [7:0] $end
   $var wire  1 )' start_valid_1 $end
   $var wire  1 A' start_valid_2 $end
   $scope module arbiter $end
    $var wire  1 Y+ clk $end
    $var wire  1 +( in_ready $end
    $var wire  1 3 in_valid_1 $end
    $var wire  1 S in_valid_2 $end
    $var wire  1 I' out_choice $end
    $var wire  1 ; out_stall_1 $end
    $var wire  1 [ out_stall_2 $end
    $var wire  1 c out_valid $end
    $var wire  1 I' reg_choice $end
    $var wire  1 a+ reset $end
   $upscope $end
   $scope module consumer $end
    $var wire  1 Y+ clk $end
    $var wire 32 A+ data_reg [31:0] $end
    $var wire  8 I+ id_reg [7:0] $end
    $var wire 32 q' in_data [31:0] $end
    $var wire  8 y' in_id [7:0] $end
    $var wire  1 #( in_valid $end
    $var wire  1 a+ reset $end
    $var wire  1 Q+ valid_reg $end
   $upscope $end
   $scope module pipeline_1 $end
    $var wire  8 k address(0) [7:0] $end
    $var wire  8 l address(1) [7:0] $end
    $var wire  8 m address(2) [7:0] $end
    $var wire  8 n address(3) [7:0] $end
    $var wire  1 Y+ clk $end
    $var wire  1 m! flush(0) $end
    $var wire  1 n! flush(1) $end
    $var wire  1 o! flush(2) $end
    $var wire  1 p! flush(3) $end
    $var wire  8 /" flush_id(0) [7:0] $end
    $var wire  8 0" flush_id(1) [7:0] $end
    $var wire  8 1" flush_id(2) [7:0] $end
    $var wire  8 2" flush_id(3) [7:0] $end
    $var wire  8 -! id(0) [7:0] $end
    $var wire  8 .! id(1) [7:0] $end
    $var wire  8 /! id(2) [7:0] $end
    $var wire  8 0! id(3) [7:0] $end
    $var wire  8 w& in_address [7:0] $end
    $var wire  1 Q' in_flush $end
    $var wire  8 Y' in_flush_id [7:0] $end
    $var wire  8 !' in_id [7:0] $end
    $var wire  1 ; in_stall $end
    $var wire  1 )' in_valid $end
    $var wire  8 # out_address [7:0] $end
    $var wire  8 + out_id [7:0] $end
    $var wire  1 3 out_valid $end
    $var wire  1 a+ reset $end
    $var wire  1 M! valid(0) $end
    $var wire  1 N! valid(1) $end
    $var wire  1 O! valid(2) $end
    $var wire  1 P! valid(3) $end
    $scope module PIPELINE(0) $end
     $scope module stage_inst $end
      $var wire  1 Y+ clk $end
      $var wire  8 O" in_address [7:0] $end
      $var wire  1 g" in_flush $end
      $var wire  8 o" in_flush_id [7:0] $end
      $var wire  8 W" in_id [7:0] $end
      $var wire  1 ; in_stall $end
      $var wire  1 _" in_valid $end
      $var wire  8 K( out_address [7:0] $end
      $var wire  1 c( out_flush $end
      $var wire  8 k( out_flush_id [7:0] $end
      $var wire  8 S( out_id [7:0] $end
      $var wire  1 [( out_valid $end
      $var wire  8 K( reg_address [7:0] $end
      $var wire  1 c( reg_flush $end
      $var wire  8 k( reg_flush_id [7:0] $end
      $var wire  8 S( reg_id [7:0] $end
      $var wire  1 [( reg_valid $end
      $var wire  1 a+ reset $end
      $var wire  8 i+ stage_offset [7:0] $end
     $upscope $end
    $upscope $end
    $scope module PIPELINE(1) $end
     $scope module stage_inst $end
      $var wire  1 Y+ clk $end
      $var wire  8 w" in_address [7:0] $end
      $var wire  1 1# in_flush $end
      $var wire  8 9# in_flush_id [7:0] $end
      $var wire  8 !# in_id [7:0] $end
      $var wire  1 ; in_stall $end
      $var wire  1 )# in_valid $end
      $var wire  8 s( out_address [7:0] $end
      $var wire  1 -) out_flush $end
      $var wire  8 5) out_flush_id [7:0] $end
      $var wire  8 {( out_id [7:0] $end
      $var wire  1 %) out_valid $end
      $var wire  8 s( reg_address [7:0] $end
      $var wire  1 -) reg_flush $end
      $var wire  8 5) reg_flush_id [7:0] $end
      $var wire  8 {( reg_id [7:0] $end
      $var wire  1 %) reg_valid $end
      $var wire  1 a+ reset $end
      $var wire  8 q+ stage_offset [7:0] $end
     $upscope $end
    $upscope $end
    $scope module PIPELINE(2) $end
     $scope module stage_inst $end
      $var wire  1 Y+ clk $end
      $var wire  8 A# in_address [7:0] $end
      $var wire  1 Y# in_flush $end
      $var wire  8 a# in_flush_id [7:0] $end
      $var wire  8 I# in_id [7:0] $end
      $var wire  1 ; in_stall $end
      $var wire  1 Q# in_valid $end
      $var wire  8 =) out_address [7:0] $end
      $var wire  1 U) out_flush $end
      $var wire  8 ]) out_flush_id [7:0] $end
      $var wire  8 E) out_id [7:0] $end
      $var wire  1 M) out_valid $end
      $var wire  8 =) reg_address [7:0] $end
      $var wire  1 U) reg_flush $end
      $var wire  8 ]) reg_flush_id [7:0] $end
      $var wire  8 E) reg_id [7:0] $end
      $var wire  1 M) reg_valid $end
      $var wire  1 a+ reset $end
      $var wire  8 y+ stage_offset [7:0] $end
     $upscope $end
    $upscope $end
   $upscope $end
   $scope module pipeline_2 $end
    $var wire  8 i# address(0) [7:0] $end
    $var wire  8 j# address(1) [7:0] $end
    $var wire  8 k# address(2) [7:0] $end
    $var wire  8 l# address(3) [7:0] $end
    $var wire  1 Y+ clk $end
    $var wire  1 k$ flush(0) $end
    $var wire  1 l$ flush(1) $end
    $var wire  1 m$ flush(2) $end
    $var wire  1 n$ flush(3) $end
    $var wire  8 -% flush_id(0) [7:0] $end
    $var wire  8 .% flush_id(1) [7:0] $end
    $var wire  8 /% flush_id(2) [7:0] $end
    $var wire  8 0% flush_id(3) [7:0] $end
    $var wire  8 +$ id(0) [7:0] $end
    $var wire  8 ,$ id(1) [7:0] $end
    $var wire  8 -$ id(2) [7:0] $end
    $var wire  8 .$ id(3) [7:0] $end
    $var wire  8 1' in_address [7:0] $end
    $var wire  1 a' in_flush $end
    $var wire  8 i' in_flush_id [7:0] $end
    $var wire  8 9' in_id [7:0] $end
    $var wire  1 [ in_stall $end
    $var wire  1 A' in_valid $end
    $var wire  8 C out_address [7:0] $end
    $var wire  8 K out_id [7:0] $end
    $var wire  1 S out_valid $end
    $var wire  1 a+ reset $end
    $var wire  1 K$ valid(0) $end
    $var wire  1 L$ valid(1) $end
    $var wire  1 M$ valid(2) $end
    $var wire  1 N$ valid(3) $end
    $scope module PIPELINE(0) $end
     $scope module stage_inst $end
      $var wire  1 Y+ clk $end
      $var wire  8 M% in_address [7:0] $end
      $var wire  1 e% in_flush $end
      $var wire  8 m% in_flush_id [7:0] $end
      $var wire  8 U% in_id [7:0] $end
      $var wire  1 [ in_stall $end
      $var wire  1 ]% in_valid $end
      $var wire  8 e) out_address [7:0] $end
      $var wire  1 }) out_flush $end
      $var wire  8 '* out_flush_id [7:0] $end
      $var wire  8 m) out_id [7:0] $end
      $var wire  1 u) out_valid $end
      $var wire  8 e) reg_address [7:0] $end
      $var wire  1 }) reg_flush $end
      $var wire  8 '* reg_flush_id [7:0] $end
      $var wire  8 m) reg_id [7:0] $end
      $var wire  1 u) reg_valid $end
      $var wire  1 a+ reset $end
      $var wire  8 i+ stage_offset [7:0] $end
     $upscope $end
    $upscope $end
    $scope module PIPELINE(1) $end
     $scope module stage_inst $end
      $var wire  1 Y+ clk $end
      $var wire  8 u% in_address [7:0] $end
      $var wire  1 /& in_flush $end
      $var wire  8 7& in_flush_id [7:0] $end
      $var wire  8 }% in_id [7:0] $end
      $var wire  1 [ in_stall $end
      $var wire  1 '& in_valid $end
      $var wire  8 /* out_address [7:0] $end
      $var wire  1 G* out_flush $end
      $var wire  8 O* out_flush_id [7:0] $end
      $var wire  8 7* out_id [7:0] $end
      $var wire  1 ?* out_valid $end
      $var wire  8 /* reg_address [7:0] $end
      $var wire  1 G* reg_flush $end
      $var wire  8 O* reg_flush_id [7:0] $end
      $var wire  8 7* reg_id [7:0] $end
      $var wire  1 ?* reg_valid $end
      $var wire  1 a+ reset $end
      $var wire  8 q+ stage_offset [7:0] $end
     $upscope $end
    $upscope $end
    $scope module PIPELINE(2) $end
     $scope module stage_inst $end
      $var wire  1 Y+ clk $end
      $var wire  8 ?& in_address [7:0] $end
      $var wire  1 W& in_flush $end
      $var wire  8 _& in_flush_id [7:0] $end
      $var wire  8 G& in_id [7:0] $end
      $var wire  1 [ in_stall $end
      $var wire  1 O& in_valid $end
      $var wire  8 W* out_address [7:0] $end
      $var wire  1 o* out_flush $end
      $var wire  8 w* out_flush_id [7:0] $end
      $var wire  8 _* out_id [7:0] $end
      $var wire  1 g* out_valid $end
      $var wire  8 W* reg_address [7:0] $end
      $var wire  1 o* reg_flush $end
      $var wire  8 w* reg_flush_id [7:0] $end
      $var wire  8 _* reg_id [7:0] $end
      $var wire  1 g* reg_valid $end
      $var wire  1 a+ reset $end
      $var wire  8 y+ stage_offset [7:0] $end
     $upscope $end
    $upscope $end
   $upscope $end
   $scope module producer $end
    $var wire  1 Y+ clk $end
    $var wire  1 Q' flush_1 $end
    $var wire  1 a' flush_2 $end
    $var wire  6 3( flush_counter [5:0] $end
    $var wire  8 Y' flush_id_1 [7:0] $end
    $var wire  8 i' flush_id_2 [7:0] $end
    $var wire  1 ;( flush_issued $end
    $var wire  1 ; in_stall_1 $end
    $var wire  1 [ in_stall_2 $end
    $var wire  8 w& out_address_1 [7:0] $end
    $var wire  8 1' out_address_2 [7:0] $end
    $var wire  8 !' out_id_1 [7:0] $end
    $var wire  8 9' out_id_2 [7:0] $end
    $var wire  1 )' out_valid_1 $end
    $var wire  1 A' out_valid_2 $end
    $var wire  8 w& reg_address_1 [7:0] $end
    $var wire  8 1' reg_address_2 [7:0] $end
    $var wire  1 Q' reg_flush_1 $end
    $var wire  1 a' reg_flush_2 $end
    $var wire  8 Y' reg_flush_id_1 [7:0] $end
    $var wire  8 i' reg_flush_id_2 [7:0] $end
    $var wire  8 !' reg_id_1 [7:0] $end
    $var wire  8 C( reg_id_1_old [7:0] $end
    $var wire  8 9' reg_id_2 [7:0] $end
    $var wire  1 )' reg_valid_1 $end
    $var wire  1 A' reg_valid_2 $end
    $var wire  1 a+ reset $end
   $upscope $end
   $scope module shared_resource $end
    $var wire  1 Y+ clk $end
    $var wire  4 1+ counter [3:0] $end
    $var wire  8 g& in_address [7:0] $end
    $var wire  8 o& in_id [7:0] $end
    $var wire  1 c in_valid $end
    $var wire 32 q' out_data [31:0] $end
    $var wire  8 y' out_id [7:0] $end
    $var wire  1 +( out_ready $end
    $var wire  1 #( out_valid $end
    $var wire  4 9+ ready_counter [3:0] $end
    $var wire 32 q' reg_data_external [31:0] $end
    $var wire 32 !+ reg_data_internal [31:0] $end
    $var wire  8 y' reg_id_external [7:0] $end
    $var wire  8 )+ reg_id_internal [7:0] $end
    $var wire  1 +( reg_ready $end
    $var wire  1 #( reg_valid $end
    $var wire  1 a+ reset $end
   $upscope $end
  $upscope $end
 $upscope $end
$enddefinitions $end


#0
b00000000 #
b00000000 +
03
0;
b00000000 C
b00000000 K
0S
0[
0c
b00000000 k
b00000000 l
b00000000 m
b00000000 n
b00000000 -!
b00000000 .!
b00000000 /!
b00000000 0!
0M!
0N!
0O!
0P!
0m!
0n!
0o!
0p!
b00000000 /"
b00000000 0"
b00000000 1"
b00000000 2"
b00000000 O"
b00000000 W"
0_"
0g"
b00000000 o"
b00000000 w"
b00000000 !#
0)#
01#
b00000000 9#
b00000000 A#
b00000000 I#
0Q#
0Y#
b00000000 a#
b00000000 i#
b00000000 j#
b00000000 k#
b00000000 l#
b00000000 +$
b00000000 ,$
b00000000 -$
b00000000 .$
0K$
0L$
0M$
0N$
0k$
0l$
0m$
0n$
b00000000 -%
b00000000 .%
b00000000 /%
b00000000 0%
b00000000 M%
b00000000 U%
0]%
0e%
b00000000 m%
b00000000 u%
b00000000 }%
0'&
0/&
b00000000 7&
b00000000 ?&
b00000000 G&
0O&
0W&
b00000000 _&
b00000000 g&
b00000000 o&
b00000000 w&
b00000000 !'
0)'
b00000000 1'
b00000000 9'
0A'
0I'
0Q'
b00000000 Y'
0a'
b00000000 i'
b00000000000000000000000000000000 q'
b00000000 y'
0#(
0+(
b000000 3(
0;(
b00000000 C(
b00000000 K(
b00000000 S(
0[(
0c(
b00000000 k(
b00000000 s(
b00000000 {(
0%)
0-)
b00000000 5)
b00000000 =)
b00000000 E)
0M)
0U)
b00000000 ])
b00000000 e)
b00000000 m)
0u)
0})
b00000000 '*
b00000000 /*
b00000000 7*
0?*
0G*
b00000000 O*
b00000000 W*
b00000000 _*
0g*
0o*
b00000000 w*
b00000000000000000000000000000000 !+
b00000000 )+
b0000 1+
b0000 9+
b00000000000000000000000000000000 A+
b00000000 I+
0Q+
1Y+
1a+
b00000011 i+
b00000110 q+
b00001001 y+
#1
0Y+
#2
1+(
b101001 3(
1Y+
#3
0Y+
#4
1Y+
#5
0Y+
#6
1Y+
#7
0Y+
#8
1Y+
#9
0Y+
#10
1Y+
#11
0Y+
#12
1Y+
#13
0Y+
#14
1Y+
#15
0Y+
#16
1Y+
#17
0Y+
#18
1Y+
#19
0Y+
#20
1Y+
#21
0Y+
0a+
#22
b00000100 k
b00010001 -!
1M!
b00000100 O"
b00010001 W"
1_"
b00000100 i#
b00100001 +$
b00000100 M%
b00100001 U%
b00000100 w&
b00010001 !'
1)'
b00000100 1'
b00100001 9'
b101000 3(
b00010001 C(
1Y+
#23
0Y+
#24
b00001000 k
b00000111 l
b00010010 -!
b00010001 .!
1N!
b00001000 O"
b00010010 W"
b00000111 w"
b00010001 !#
1)#
b00001000 i#
b00100010 +$
b00001000 M%
b00100010 U%
b00001000 w&
b00010010 !'
b00001000 1'
b00100010 9'
b100111 3(
b00010010 C(
b00000111 K(
b00010001 S(
1[(
1Y+
#25
0Y+
#26
b00001100 k
b00001011 l
b00001101 m
b00010011 -!
b00010010 .!
b00010001 /!
1O!
b00001100 O"
b00010011 W"
b00001011 w"
b00010010 !#
b00001101 A#
b00010001 I#
1Q#
b00001100 i#
b00100011 +$
b00001100 M%
b00100011 U%
b00001100 w&
b00010011 !'
b00001100 1'
b00100011 9'
b100110 3(
b00010011 C(
b00001011 K(
b00010010 S(
b00001101 s(
b00010001 {(
1%)
1Y+
#27
0Y+
#28
b00010110 #
b00010001 +
13
1c
b00010000 k
b00001111 l
b00010001 m
b00010110 n
b00010100 -!
b00010011 .!
b00010010 /!
b00010001 0!
1P!
b00010000 O"
b00010100 W"
b00001111 w"
b00010011 !#
b00010001 A#
b00010010 I#
b00010000 i#
b00100100 +$
b00010000 M%
b00100100 U%
b00010110 g&
b00010001 o&
b00010000 w&
b00010100 !'
b00010000 1'
b00100100 9'
b100101 3(
b00010100 C(
b00001111 K(
b00010011 S(
b00010001 s(
b00010010 {(
b00010110 =)
b00010001 E)
1M)
1Y+
#29
0Y+
#30
b00011010 #
b00010010 +
1;
b00010100 k
b00010011 l
b00010101 m
b00011010 n
b00010101 -!
b00010100 .!
b00010011 /!
b00010010 0!
b00010100 O"
b00010101 W"
b00010011 w"
b00010100 !#
b00010101 A#
b00010011 I#
b00010100 i#
b00100101 +$
b00010100 M%
b00100101 U%
b00011010 g&
b00010010 o&
b00010100 w&
b00010101 !'
b00010100 1'
b00100101 9'
0+(
b100100 3(
b00010101 C(
b00010011 K(
b00010100 S(
b00010101 s(
b00010011 {(
b00011010 =)
b00010010 E)
b00000000000000000000001000010110 !+
b00010001 )+
b0001 1+
1Y+
#31
0Y+
#32
b00011000 i#
b00100110 +$
b00011000 M%
b00100110 U%
b00011000 1'
b00100110 9'
b100011 3(
b0010 1+
1Y+
#33
0Y+
#34
b00011100 i#
b00100111 +$
b00011100 M%
b00100111 U%
b00011100 1'
b00100111 9'
b100010 3(
b0011 1+
1Y+
#35
0Y+
#36
b00100000 i#
b00101000 +$
b00100000 M%
b00101000 U%
b00100000 1'
b00101000 9'
b100001 3(
b0100 1+
1Y+
#37
0Y+
#38
b00100100 i#
b00101001 +$
b00100100 M%
b00101001 U%
b00100100 1'
b00101001 9'
b100000 3(
b0101 1+
1Y+
#39
0Y+
#40
b00101000 i#
b00101010 +$
b00101000 M%
b00101010 U%
b00101000 1'
b00101010 9'
b011111 3(
b0110 1+
1Y+
#41
0Y+
#42
b00101100 i#
b00101011 +$
b00101100 M%
b00101011 U%
b00101100 1'
b00101011 9'
b011110 3(
b0111 1+
1Y+
#43
0Y+
#44
b00110000 i#
b00101100 +$
b00110000 M%
b00101100 U%
b00110000 1'
b00101100 9'
b011101 3(
b1000 1+
1Y+
#45
0Y+
#46
b00110100 i#
b00101101 +$
b00110100 M%
b00101101 U%
b00110100 1'
b00101101 9'
b011100 3(
b1001 1+
1Y+
#47
0Y+
#48
b00111000 i#
b00101110 +$
b00111000 M%
b00101110 U%
b00111000 1'
b00101110 9'
b011011 3(
b1010 1+
1Y+
#49
0Y+
#50
0;
b00111100 i#
b00101111 +$
b00111100 M%
b00101111 U%
b00111100 1'
b00101111 9'
b00000000000000000000001000010110 q'
b00010001 y'
1#(
1+(
b011010 3(
b0001 9+
1Y+
#51
0Y+
#52
b00011110 #
b00010011 +
b00011000 k
b00010111 l
b00011001 m
b00011110 n
b00010110 -!
b00010101 .!
b00010100 /!
b00010011 0!
b00011000 O"
b00010110 W"
b00010111 w"
b00010101 !#
b00011001 A#
b00010100 I#
b01000000 i#
b00100000 +$
b01000000 M%
b00100000 U%
b00011110 g&
b00010011 o&
b00011000 w&
b00010110 !'
b01000000 1'
b00100000 9'
b011001 3(
b00010110 C(
b00010111 K(
b00010101 S(
b00011001 s(
b00010100 {(
b00011110 =)
b00010011 E)
b0010 9+
b00000000000000000000001000010110 A+
b00010001 I+
1Q+
1Y+
#53
0Y+
#54
b00100010 #
b00010100 +
b00011100 k
b00011011 l
b00011101 m
b00100010 n
b00010111 -!
b00010110 .!
b00010101 /!
b00010100 0!
b00011100 O"
b00010111 W"
b00011011 w"
b00010110 !#
b00011101 A#
b00010101 I#
b01000100 i#
b00100001 +$
b01000100 M%
b00100001 U%
b00100010 g&
b00010100 o&
b00011100 w&
b00010111 !'
b01000100 1'
b00100001 9'
b011000 3(
b00010111 C(
b00011011 K(
b00010110 S(
b00011101 s(
b00010101 {(
b00100010 =)
b00010100 E)
b0011 9+
1Y+
#55
0Y+
#56
b00100110 #
b00010101 +
b00100000 k
b00011111 l
b00100001 m
b00100110 n
b00011000 -!
b00010111 .!
b00010110 /!
b00010101 0!
b00100000 O"
b00011000 W"
b00011111 w"
b00010111 !#
b00100001 A#
b00010110 I#
b01001000 i#
b00100010 +$
b01001000 M%
b00100010 U%
b00100110 g&
b00010101 o&
b00100000 w&
b00011000 !'
b01001000 1'
b00100010 9'
b010111 3(
b00011000 C(
b00011111 K(
b00010111 S(
b00100001 s(
b00010110 {(
b00100110 =)
b00010101 E)
b0100 9+
1Y+
#57
0Y+
#58
b00101010 #
b00010110 +
b00100100 k
b00100011 l
b00100101 m
b00101010 n
b00011001 -!
b00011000 .!
b00010111 /!
b00010110 0!
b00100100 O"
b00011001 W"
b00100011 w"
b00011000 !#
b00100101 A#
b00010111 I#
b01001100 i#
b00100011 +$
b01001100 M%
b00100011 U%
b00101010 g&
b00010110 o&
b00100100 w&
b00011001 !'
b01001100 1'
b00100011 9'
b010110 3(
b00011001 C(
b00100011 K(
b00011000 S(
b00100101 s(
b00010111 {(
b00101010 =)
b00010110 E)
b0101 9+
1Y+
#59
0Y+
#60
b00101110 #
b00010111 +
b00101000 k
b00100111 l
b00101001 m
b00101110 n
b00011010 -!
b00011001 .!
b00011000 /!
b00010111 0!
b00101000 O"
b00011010 W"
b00100111 w"
b00011001 !#
b00101001 A#
b00011000 I#
b01010000 i#
b00100100 +$
b01010000 M%
b00100100 U%
b00101110 g&
b00010111 o&
b00101000 w&
b00011010 !'
b01010000 1'
b00100100 9'
b010101 3(
b00011010 C(
b00100111 K(
b00011001 S(
b00101001 s(
b00011000 {(
b00101110 =)
b00010111 E)
b0110 9+
1Y+
#61
0Y+
#62
b00110010 #
b00011000 +
b00101100 k
b00101011 l
b00101101 m
b00110010 n
b00011011 -!
b00011010 .!
b00011001 /!
b00011000 0!
b00101100 O"
b00011011 W"
b00101011 w"
b00011010 !#
b00101101 A#
b00011001 I#
b01010100 i#
b00100101 +$
b01010100 M%
b00100101 U%
b00110010 g&
b00011000 o&
b00101100 w&
b00011011 !'
b01010100 1'
b00100101 9'
b010100 3(
b00011011 C(
b00101011 K(
b00011010 S(
b00101101 s(
b00011001 {(
b00110010 =)
b00011000 E)
b0111 9+
1Y+
#63
0Y+
#64
b00110110 #
b00011001 +
b00110000 k
b00101111 l
b00110001 m
b00110110 n
b00011100 -!
b00011011 .!
b00011010 /!
b00011001 0!
b00110000 O"
b00011100 W"
b00101111 w"
b00011011 !#
b00110001 A#
b00011010 I#
b01011000 i#
b00100110 +$
b01011000 M%
b00100110 U%
b00110110 g&
b00011001 o&
b00110000 w&
b00011100 !'
b01011000 1'
b00100110 9'
b010011 3(
b00011100 C(
b00101111 K(
b00011011 S(
b00110001 s(
b00011010 {(
b00110110 =)
b00011001 E)
b1000 9+
1Y+
#65
0Y+
#66
b00111010 #
b00011010 +
b00110100 k
b00110011 l
b00110101 m
b00111010 n
b00011101 -!
b00011100 .!
b00011011 /!
b00011010 0!
b00110100 O"
b00011101 W"
b00110011 w"
b00011100 !#
b00110101 A#
b00011011 I#
b01011100 i#
b00100111 +$
b01011100 M%
b00100111 U%
b00111010 g&
b00011010 o&
b00110100 w&
b00011101 !'
b01011100 1'
b00100111 9'
b010010 3(
b00011101 C(
b00110011 K(
b00011100 S(
b00110101 s(
b00011011 {(
b00111010 =)
b00011010 E)
b1001 9+
1Y+
#67
0Y+
#68
b00111110 #
b00011011 +
b00111000 k
b00110111 l
b00111001 m
b00111110 n
b00011110 -!
b00011101 .!
b00011100 /!
b00011011 0!
b00111000 O"
b00011110 W"
b00110111 w"
b00011101 !#
b00111001 A#
b00011100 I#
b01100000 i#
b00101000 +$
b01100000 M%
b00101000 U%
b00111110 g&
b00011011 o&
b00111000 w&
b00011110 !'
b01100000 1'
b00101000 9'
b010001 3(
b00011110 C(
b00110111 K(
b00011101 S(
b00111001 s(
b00011100 {(
b00111110 =)
b00011011 E)
b1010 9+
1Y+
#69
0Y+
#70
b01000010 #
b00011100 +
b00111100 k
b00111011 l
b00111101 m
b01000010 n
b00011111 -!
b00011110 .!
b00011101 /!
b00011100 0!
b00111100 O"
b00011111 W"
b00111011 w"
b00011110 !#
b00111101 A#
b00011101 I#
b01100100 i#
b00101001 +$
b01100100 M%
b00101001 U%
b01000010 g&
b00011100 o&
b00111100 w&
b00011111 !'
b01100100 1'
b00101001 9'
b010000 3(
b00011111 C(
b00111011 K(
b00011110 S(
b00111101 s(
b00011101 {(
b01000010 =)
b00011100 E)
b1011 9+
1Y+
#71
0Y+
#72
b01000110 #
b00011101 +
b01000000 k
b00111111 l
b01000001 m
b01000110 n
b00010000 -!
b00011111 .!
b00011110 /!
b00011101 0!
b01000000 O"
b00010000 W"
b00111111 w"
b00011111 !#
b01000001 A#
b00011110 I#
b01101000 i#
b00101010 +$
b01101000 M%
b00101010 U%
b01000110 g&
b00011101 o&
b01000000 w&
b00010000 !'
b01101000 1'
b00101010 9'
b001111 3(
b00010000 C(
b00111111 K(
b00011111 S(
b01000001 s(
b00011110 {(
b01000110 =)
b00011101 E)
b1100 9+
1Y+
#73
0Y+
#74
b01001010 #
b00011110 +
b01000100 k
b01000011 l
b01000101 m
b01001010 n
b00010001 -!
b00010000 .!
b00011111 /!
b00011110 0!
b01000100 O"
b00010001 W"
b01000011 w"
b00010000 !#
b01000101 A#
b00011111 I#
b01101100 i#
b00101011 +$
b01101100 M%
b00101011 U%
b01001010 g&
b00011110 o&
b01000100 w&
b00010001 !'
b01101100 1'
b00101011 9'
b001110 3(
b00010001 C(
b01000011 K(
b00010000 S(
b01000101 s(
b00011111 {(
b01001010 =)
b00011110 E)
b1101 9+
1Y+
#75
0Y+
#76
b01001110 #
b00011111 +
b01001000 k
b01000111 l
b01001001 m
b01001110 n
b00010010 -!
b00010001 .!
b00010000 /!
b00011111 0!
b01001000 O"
b00010010 W"
b01000111 w"
b00010001 !#
b01001001 A#
b00010000 I#
b01110000 i#
b00101100 +$
b01110000 M%
b00101100 U%
b01001110 g&
b00011111 o&
b01001000 w&
b00010010 !'
b01110000 1'
b00101100 9'
b001101 3(
b00010010 C(
b01000111 K(
b00010001 S(
b01001001 s(
b00010000 {(
b01001110 =)
b00011111 E)
b1110 9+
1Y+
#77
0Y+
#78
b01010010 #
b00010000 +
b01001100 k
b01001011 l
b01001101 m
b01010010 n
b00010011 -!
b00010010 .!
b00010001 /!
b00010000 0!
b01001100 O"
b00010011 W"
b01001011 w"
b00010010 !#
b01001101 A#
b00010001 I#
b01110100 i#
b00101101 +$
b01110100 M%
b00101101 U%
b01010010 g&
b00010000 o&
b01001100 w&
b00010011 !'
b01110100 1'
b00101101 9'
b001100 3(
b00010011 C(
b01001011 K(
b00010010 S(
b01001101 s(
b00010001 {(
b01010010 =)
b00010000 E)
b1111 9+
1Y+
#79
0Y+
#80
b01010110 #
b00010001 +
b01010000 k
b01001111 l
b01010001 m
b01010110 n
b00010100 -!
b00010011 .!
b00010010 /!
b00010001 0!
b01010000 O"
b00010100 W"
b01001111 w"
b00010011 !#
b01010001 A#
b00010010 I#
b01111000 i#
b00101110 +$
b01111000 M%
b00101110 U%
b01010110 g&
b00010001 o&
b01010000 w&
b00010100 !'
b01111000 1'
b00101110 9'
b001011 3(
b00010100 C(
b01001111 K(
b00010011 S(
b01010001 s(
b00010010 {(
b01010110 =)
b00010001 E)
b0000 1+
b0000 9+
1Y+
#81
0Y+
#82
b01011010 #
b00010010 +
1;
b01010100 k
b01010011 l
b01010101 m
b01011010 n
b00010101 -!
b00010100 .!
b00010011 /!
b00010010 0!
b01010100 O"
b00010101 W"
b01010011 w"
b00010100 !#
b01010101 A#
b00010011 I#
b01111100 i#
b00101111 +$
b01111100 M%
b00101111 U%
b01011010 g&
b00010010 o&
b01010100 w&
b00010101 !'
b01111100 1'
b00101111 9'
0#(
0+(
b001010 3(
b00010101 C(
b01010011 K(
b00010100 S(
b01010101 s(
b00010011 {(
b01011010 =)
b00010010 E)
b00000000000000000000001001010110 !+
b0001 1+
1Y+
#83
0Y+
#84
b10000000 i#
b00100000 +$
b10000000 M%
b00100000 U%
b10000000 1'
b00100000 9'
b001001 3(
b0010 1+
0Q+
1Y+
#85
0Y+
#86
b10000100 i#
b00100001 +$
b10000100 M%
b00100001 U%
b10000100 1'
b00100001 9'
b001000 3(
b0011 1+
1Y+
#87
0Y+
#88
b10001000 i#
b00100010 +$
b10001000 M%
b00100010 U%
b10001000 1'
b00100010 9'
b000111 3(
b0100 1+
1Y+
#89
0Y+
#90
b10001100 i#
b00100011 +$
b10001100 M%
b00100011 U%
b10001100 1'
b00100011 9'
b000110 3(
b0101 1+
1Y+
#91
0Y+
#92
b10010000 i#
b00100100 +$
b10010000 M%
b00100100 U%
b10010000 1'
b00100100 9'
b000101 3(
b0110 1+
1Y+
#93
0Y+
#94
b10010100 i#
b00100101 +$
b10010100 M%
b00100101 U%
b10010100 1'
b00100101 9'
b000100 3(
b0111 1+
1Y+
#95
0Y+
#96
b10011000 i#
b00100110 +$
b10011000 M%
b00100110 U%
b10011000 1'
b00100110 9'
b000011 3(
b1000 1+
1Y+
#97
0Y+
#98
b10011100 i#
b00100111 +$
b10011100 M%
b00100111 U%
b10011100 1'
b00100111 9'
b000010 3(
b1001 1+
1Y+
#99
0Y+
#100
b10100000 i#
b00101000 +$
b10100000 M%
b00101000 U%
b10100000 1'
b00101000 9'
b000001 3(
b1010 1+
1Y+
#101
0Y+
#102
0;
b10100100 i#
b00101001 +$
b10100100 M%
b00101001 U%
b10100100 1'
b00101001 9'
b00000000000000000000001001010110 q'
1#(
1+(
b000000 3(
b0001 9+
1Y+
#103
0Y+
#104
b01011110 #
b00010011 +
b01011000 k
b01010111 l
b01011001 m
b01011110 n
b00010110 -!
b00010101 .!
b00010100 /!
b00010011 0!
1m!
b00010110 /"
b01011000 O"
b00010110 W"
1g"
b00010110 o"
b01010111 w"
b00010101 !#
b01011001 A#
b00010100 I#
b10101000 i#
b00101010 +$
b10101000 M%
b00101010 U%
b01011110 g&
b00010011 o&
b01011000 w&
b00010110 !'
b10101000 1'
b00101010 9'
1Q'
b00010110 Y'
b111111 3(
1;(
b00010110 C(
b01010111 K(
b00010101 S(
b01011001 s(
b00010100 {(
b01011110 =)
b00010011 E)
b0010 9+
b00000000000000000000001001010110 A+
1Q+
1Y+
#105
0Y+
